simulation/qsim/detector.msim.vcd
$comment
	File created using the following command:
		vcd file detector.msim.vcd -direction
$end
$date
	Thu Jan 07 18:38:14 2021
$end
$version
	ModelSim Version 2020.1
$end
$timescale
	1ps
$end

$scope module detector_vhd_vec_tst $end
$var wire 1 ! clock $end
$var wire 1 " R $end
$var wire 1 # reset $end
$var wire 1 $ x $end

$scope module i1 $end
$var wire 1 % gnd $end
$var wire 1 & vcc $end
$var wire 1 ' unknown $end
$var wire 1 ( devoe $end
$var wire 1 ) devclrn $end
$var wire 1 * devpor $end
$var wire 1 + ww_devoe $end
$var wire 1 , ww_devclrn $end
$var wire 1 - ww_devpor $end
$var wire 1 . ww_reset $end
$var wire 1 / ww_clock $end
$var wire 1 0 ww_x $end
$var wire 1 1 ww_R $end
$var wire 1 2 \~QUARTUS_CREATED_GND~I_combout\ $end
$var wire 1 3 \x~input_o\ $end
$var wire 1 4 \clock~input_o\ $end
$var wire 1 5 \clock~inputCLKENA0_outclk\ $end
$var wire 1 6 \reset~input_o\ $end
$var wire 1 7 \reg_fstate.D~0_combout\ $end
$var wire 1 8 \fstate.D~q\ $end
$var wire 1 9 \reg_fstate.B~0_combout\ $end
$var wire 1 : \fstate.B~q\ $end
$var wire 1 ; \reg_fstate.G~0_combout\ $end
$var wire 1 < \fstate.G~q\ $end
$var wire 1 = \reg_fstate.C~0_combout\ $end
$var wire 1 > \fstate.C~q\ $end
$var wire 1 ? \reg_fstate.E~0_combout\ $end
$var wire 1 @ \fstate.E~q\ $end
$var wire 1 A \reg_fstate.F~0_combout\ $end
$var wire 1 B \fstate.F~q\ $end
$var wire 1 C \R~0_combout\ $end
$var wire 1 D \ALT_INV_reset~input_o\ $end
$var wire 1 E \ALT_INV_x~input_o\ $end
$var wire 1 F \ALT_INV_fstate.F~q\ $end
$var wire 1 G \ALT_INV_fstate.G~q\ $end
$var wire 1 H \ALT_INV_fstate.E~q\ $end
$var wire 1 I \ALT_INV_fstate.D~q\ $end
$var wire 1 J \ALT_INV_fstate.C~q\ $end
$var wire 1 K \ALT_INV_fstate.B~q\ $end
$upscope $end
$upscope $end
$enddefinitions $end
#0
$dumpvars
0!
0"
1#
0$
0%
1&
x'
1(
1)
1*
1+
1,
1-
1.
0/
00
01
x2
03
04
05
16
07
08
09
0:
0;
0<
0=
0>
0?
0@
0A
0B
0C
0D
1E
1F
1G
1H
1I
1J
1K
$end
#20000
1!
1/
14
15
#40000
0!
0#
0/
0.
06
04
05
1D
1=
#60000
1!
1/
14
15
1>
0J
#80000
0!
1$
0/
10
13
04
05
0E
0=
1?
#100000
1!
1/
14
15
0>
1@
0H
1J
19
0?
#120000
0!
0/
04
05
#140000
1!
1/
14
15
1:
0@
1H
0K
#160000
0!
0$
0/
00
03
04
05
1E
17
09
#180000
1!
1/
14
15
18
0:
1K
0I
07
1=
#200000
0!
0/
04
05
#220000
1!
1/
14
15
08
1>
0J
1I
#240000
0!
1$
0/
10
13
04
05
0E
0=
1?
#260000
1!
1/
14
15
0>
1@
0H
1J
19
0?
#280000
0!
0$
0/
00
03
04
05
1E
09
1A
#300000
1!
1/
14
15
0@
1B
0F
1H
1=
0A
#320000
0!
1$
0/
10
13
04
05
0E
1;
0=
1C
11
1"
#340000
1!
1/
14
15
1<
0B
1F
0G
19
0;
#360000
0!
0/
04
05
#380000
1!
1/
14
15
1:
0<
1G
0K
0C
01
0"
#400000
0!
0$
0/
00
03
04
05
1E
17
09
#420000
1!
1/
14
15
18
0:
1K
0I
07
1=
#440000
0!
1$
0/
10
13
04
05
0E
1;
0=
#460000
1!
1/
14
15
08
1<
0G
1I
19
0;
1C
11
1"
#480000
0!
0$
0/
00
03
04
05
1E
09
1A
0C
01
0"
#500000
1!
1/
14
15
0<
1B
0F
1G
1=
0A
#520000
0!
1$
0/
10
13
04
05
0E
1;
0=
1C
11
1"
#540000
1!
1/
14
15
1<
0B
1F
0G
19
0;
#560000
0!
0$
0/
00
03
04
05
1E
09
1A
0C
01
0"
#580000
1!
1/
14
15
0<
1B
0F
1G
1=
0A
#600000
0!
1$
0/
10
13
04
05
0E
1;
0=
1C
11
1"
#620000
1!
1/
14
15
1<
0B
1F
0G
19
0;
#640000
0!
0/
04
05
#660000
1!
1/
14
15
1:
0<
1G
0K
0C
01
0"
#680000
0!
0$
0/
00
03
04
05
1E
17
09
#700000
1!
1/
14
15
18
0:
1K
0I
07
1=
#720000
0!
0/
04
05
#740000
1!
1/
14
15
08
1>
0J
1I
#760000
0!
1$
0/
10
13
04
05
0E
0=
1?
#780000
1!
1/
14
15
0>
1@
0H
1J
19
0?
